[
  {
    "firstName": "Dmytro",
    "lastName": "Mushchak",
    "age": 30,
    "history": [
      {
        "disease": "cold",
        "treatment": "pills"
      },
      {
        "disease": "allergy",
        "treatment": "fruits"
      }
    ]
  },
  {
    "firstName": "John",
    "lastName": "Johny",
    "age": 18,
    "history": [
      {
        "disease": "temperature",
        "treatment": "pills"
      }
    ]
  },
  {
    "firstName": "Mike",
    "lastName": "Haris",
    "age": 15,
    "history": [
      {
        "disease": "hot",
        "treatment": "pills"
      }
    ]
  }
]